id,name,model_id:id,group_id:id,perm_read,perm_write,perm_create,perm_unlink
access_magestore_user_group_user,magestore.group.user,model_magestore_group,point_of_sale.group_pos_user,1,1,1,1
access_magestore_user_group_manager,magestore.group.manager,model_magestore_group,point_of_sale.group_pos_manager,1,1,1,1

access_account_journal_user,account.journal.user,model_account_journal,point_of_sale.group_pos_user,1,1,1,1
access_account_journal_manager,account.journal.manager,model_account_journal,point_of_sale.group_pos_manager,1,1,1,1

